,SINOSTAR PEC HDG - Time Series Data.CSV_return,NORDIC GROUP - Time Series Data.CSV_return,HI-P INTERNATIONAL - Time Series Data.CSV_return,SINOSTAR PEC HDG - Time Series Data.CSV,NORDIC GROUP - Time Series Data.CSV,HI-P INTERNATIONAL - Time Series Data.CSV,SINOSTAR PEC HDG - Time Series Data.CSV_start,NORDIC GROUP - Time Series Data.CSV_start,HI-P INTERNATIONAL - Time Series Data.CSV_start,SINOSTAR PEC HDG - Time Series Data.CSV_end,NORDIC GROUP - Time Series Data.CSV_end,HI-P INTERNATIONAL - Time Series Data.CSV_end,P_weight,^sti_d_return,^sti_d_port,sti_d_return,P_return,15_rolling_std_R,30_rolling_std_R,50_rolling_std_R
2017-07-01,0.0,0.0,0.0,0.3333333333333333,0.3333333333333333,0.3333333333333333,0.3333333333333333,0.3333333333333333,0.3333333333333333,0.3333333333333333,0.3333333333333333,0.3333333333333333,1.0,0.0,1.0,0.0,,,,
2017-07-02,0.0,0.0,0.0,0.3333333333333333,0.3333333333333333,0.3333333333333333,0.3333333333333333,0.3333333333333333,0.3333333333333333,0.3333333333333333,0.3333333333333333,0.3333333333333333,1.0,0.0,1.0,0.0,0.0,,,
2017-07-03,0.0,0.0,-0.005442019336536763,0.3333333333333333,0.3333333333333333,0.3333333333333333,0.3333333333333333,0.3333333333333333,0.3333333333333333,0.3333333333333333,0.3333333333333333,0.33151932688782104,0.9981859935544877,-0.0009360045622474057,0.9990639954377526,-0.0009360045622474057,-0.0018140064455123284,,,
2017-07-04,0.0,0.0,-0.011001804528785077,0.3333333333333333,0.3333333333333333,0.3333333333333333,0.3333333333333333,0.3333333333333333,0.33151932688782104,0.3333333333333333,0.3333333333333333,0.32787201605588684,0.9945386827225535,-0.0038126733385864813,0.9952548907788054,-0.0038126733385864813,-0.003653939101014858,,,
2017-07-05,0.0,0.0,0.0,0.3333333333333333,0.3333333333333333,0.3333333333333333,0.3333333333333333,0.3333333333333333,0.32787201605588684,0.3333333333333333,0.3333333333333333,0.32787201605588684,0.9945386827225535,0.011690443047238208,1.0068898613969404,0.011690443047238208,0.0,,,
2017-07-06,0.016750228970153547,0.026298079411916968,0.0444379046497938,0.3333333333333333,0.3333333333333333,0.3333333333333333,0.3333333333333333,0.3333333333333333,0.32787201605588684,0.33891674299005115,0.3420993598039723,0.342441961442714,1.0234580642367375,-0.006885810059993003,0.9999566090600284,-0.006885810059993003,0.029078186717702126,,,
2017-07-07,-0.02273675427617849,-0.012812105926859996,-0.010650887573964374,0.3333333333333333,0.3333333333333333,0.3333333333333333,0.33891674299005115,0.3420993598039723,0.342441961442714,0.3312108762846036,0.33771634656865285,0.3387946506107798,1.0077218734640363,0.0008275631210596933,1.0007841362723464,0.0008275631210596933,-0.0153755110468905,,,
2017-07-08,0.0,0.0,0.0,0.3333333333333333,0.3333333333333333,0.3333333333333333,0.3312108762846036,0.33771634656865285,0.3387946506107798,0.3312108762846036,0.33771634656865285,0.3387946506107798,1.0077218734640363,0.0,1.0007841362723464,0.0,0.0,,,
2017-07-09,0.0,0.0,0.0,0.3333333333333333,0.3333333333333333,0.3333333333333333,0.3312108762846036,0.33771634656865285,0.3387946506107798,0.3312108762846036,0.33771634656865285,0.3387946506107798,1.0077218734640363,0.0,1.0007841362723464,0.0,0.0,,,
2017-07-10,0.023265741728921933,0.02595677277604613,0.0,0.3333333333333333,0.3333333333333333,0.3333333333333333,0.3312108762846036,0.33771634656865285,0.3387946506107798,0.3389167429900511,0.3464823730392918,0.3387946506107798,1.0241937666401226,0.005370066986475575,1.006158414123131,0.005370066986475575,0.016345673950158845,,,
2017-07-11,0.0,-0.025300064744260053,0.005411255411255311,0.3333333333333333,0.3333333333333333,0.3333333333333333,0.3389167429900511,0.3464823730392918,0.3387946506107798,0.3389167429900511,0.33771634656865285,0.3406279549972017,1.0172610445559056,-0.008486454017588851,0.9976196970072649,-0.008486454017588851,-0.006768955553166367,,,
2017-07-12,-0.007312999912103323,0.02595677277604613,0.01070760863407183,0.3333333333333333,0.3333333333333333,0.3333333333333333,0.3389167429900511,0.33771634656865285,0.3406279549972017,0.3364382448783545,0.3464823730392918,0.344275265829136,1.0271958837467823,-0.0030725736299243023,0.9945544370335473,-0.0030725736299243023,0.00976626328516672,,,
2017-07-13,-0.02440116409223203,0.0,0.015863228699551483,0.3333333333333333,0.3333333333333333,0.3333333333333333,0.3364382448783545,0.3464823730392918,0.344275265829136,0.32822876005817525,0.3464823730392918,0.34973658310658245,1.0244477162040495,0.008339280316369102,1.0028483052738586,0.008339280316369102,-0.0026754074721450083,,,
2017-07-14,0.0,0.012699835649185864,0.015615516194890544,0.3333333333333333,0.3333333333333333,0.3333333333333333,0.32822876005817525,0.3464823730392918,0.34973658310658245,0.32822876005817525,0.3508826422322307,0.355197900384029,1.0343093026744348,0.015996686930372928,1.0188905556519796,0.015996686930372928,0.009626246722405751,,,
2017-07-15,0.0,0.0,0.0,0.3333333333333333,0.3333333333333333,0.3333333333333333,0.32822876005817525,0.3508826422322307,0.355197900384029,0.32822876005817525,0.3508826422322307,0.355197900384029,1.0343093026744348,0.0,1.0188905556519796,0.0,0.0,,,
2017-07-16,0.0,0.0,0.0,0.3333333333333333,0.3333333333333333,0.3333333333333333,0.32822876005817525,0.3508826422322307,0.355197900384029,0.32822876005817525,0.3508826422322307,0.355197900384029,1.0343093026744348,0.0,1.0188905556519796,0.0,0.0,0.01044,,
2017-07-17,0.02501147315282237,0.0,0.035912202542649034,0.3333333333333333,0.3333333333333333,0.3333333333333333,0.32822876005817525,0.3508826422322307,0.355197900384029,0.3364382448783545,0.3508826422322307,0.3679538393253439,1.055274726435929,0.003288282944427623,1.0222409560883683,0.003288282944427623,0.020269975052224165,0.01139,,
2017-07-18,0.0,0.02498278744959181,-0.004982430377091229,0.3333333333333333,0.3333333333333333,0.3333333333333333,0.3364382448783545,0.3508826422322307,0.3679538393253439,0.3364382448783545,0.3596486687028697,0.366120534938922,1.0622074485201463,0.002377025322596316,1.0246708487267855,0.002377025322596316,0.006569589804952258,0.01131,,
2017-07-19,-0.02932616968882928,-0.012186930237021332,0.034840818047649165,0.3333333333333333,0.3333333333333333,0.3333333333333333,0.3364382448783545,0.3596486687028697,0.366120534938922,0.32657179981923995,0.35526565546755023,0.37887647388023693,1.0607139291670271,0.005743962638532718,1.0305565197986657,0.005743962638532718,-0.0014060524196096713,0.01121,,
2017-07-20,0.0,0.0,-0.009626649009321088,0.3333333333333333,0.3333333333333333,0.3333333333333333,0.32657179981923995,0.35526565546755023,0.37887647388023693,0.32657179981923995,0.35526565546755023,0.37522916304830267,1.0570666183350927,-0.009605812809955872,1.0206571867794,-0.009605812809955872,-0.0034385433542846178,0.01134,,
2017-07-21,0.005073800738007339,0.012337283854672476,-0.00972022217650681,0.3333333333333333,0.3333333333333333,0.3333333333333333,0.32657179981923995,0.35526565546755023,0.37522916304830267,0.3282287600581752,0.35964866870286966,0.37158185221636847,1.0594592809774133,0.00637387531011524,1.027162728422305,0.00637387531011524,0.0022634927646179026,0.009,,
2017-07-22,0.0,0.0,0.0,0.3333333333333333,0.3333333333333333,0.3333333333333333,0.3282287600581752,0.35964866870286966,0.37158185221636847,0.3282287600581752,0.35964866870286966,0.37158185221636847,1.0594592809774133,0.0,1.027162728422305,0.0,0.0,0.00761,,
2017-07-23,0.0,0.0,0.0,0.3333333333333333,0.3333333333333333,0.3333333333333333,0.3282287600581752,0.35964866870286966,0.37158185221636847,0.3282287600581752,0.35964866870286966,0.37158185221636847,1.0594592809774133,0.0,1.027162728422305,0.0,0.0,0.00761,,
2017-07-24,0.02501147315282237,-0.012186930237021332,-0.0010017742266422713,0.3333333333333333,0.3333333333333333,0.3333333333333333,0.3282287600581752,0.35964866870286966,0.37158185221636847,0.33643824487835444,0.3552656554675502,0.37120961109373013,1.0629135114396349,-0.0010017742266422713,1.026133743274404,-0.0010017742266422713,0.0032603711386007816,0.00755,,
2017-07-25,-0.02440116409223203,0.0,0.0,0.3333333333333333,0.3333333333333333,0.3333333333333333,0.33643824487835444,0.3552656554675502,0.37120961109373013,0.3282287600581752,0.3552656554675502,0.37120961109373013,1.0547040266194556,0.005143771898030503,1.0314119411866798,0.005143771898030503,-0.0077235680342986335,0.0072,,
2017-07-26,0.0,-0.012337283854672587,-0.01888961071410722,0.3333333333333333,0.3333333333333333,0.3333333333333333,0.3282287600581752,0.3552656554675502,0.37120961109373013,0.3282287600581752,0.3508826422322307,0.36419760604683443,1.0433090083372403,0.0026714104987333176,1.0341672658748848,0.0026714104987333176,-0.01080399618719452,0.00761,,
2017-07-27,0.0,0.0,-0.014414506188560106,0.3333333333333333,0.3333333333333333,0.3333333333333333,0.3282287600581752,0.3508826422322307,0.36419760604683443,0.3282287600581752,0.3508826422322307,0.35894787740061357,1.0380592796910195,0.00539152221343131,1.0397430016612528,0.00539152221343131,-0.005031806113308113,0.00745,,
2017-07-28,-0.00986691142726015,0.012491393724795907,-0.004909560723514117,0.3333333333333333,0.3333333333333333,0.3333333333333333,0.3282287600581752,0.3508826422322307,0.35894787740061357,0.32499015595480174,0.3552656554675502,0.35718560099993873,1.0374414124222906,-0.007142197090061475,1.032316952220376,-0.007142197090061475,-0.0005952138580301858,0.0074,,
2017-07-29,0.0,0.0,0.0,0.3333333333333333,0.3333333333333333,0.3333333333333333,0.32499015595480174,0.3552656554675502,0.35718560099993873,0.32499015595480174,0.3552656554675502,0.35718560099993873,1.0374414124222906,0.0,1.032316952220376,0.0,0.0,0.00699,,
2017-07-30,0.0,0.0,0.0,0.3333333333333333,0.3333333333333333,0.3333333333333333,0.32499015595480174,0.3552656554675502,0.35718560099993873,0.32499015595480174,0.3552656554675502,0.35718560099993873,1.0374414124222906,0.0,1.032316952220376,0.0,0.0,0.00699,,
2017-07-31,-0.0003692861968025429,0.0,0.0,0.3333333333333333,0.3333333333333333,0.3333333333333333,0.32499015595480174,0.3552656554675502,0.35718560099993873,0.32487014157611094,0.3552656554675502,0.35718560099993873,1.0373213980435998,-0.0003692861968025429,1.0319357318191957,-0.0003692861968025429,-0.00011568304219766734,0.00699,0.0088,
2017-08-01,0.0,-0.012337283854672587,0.0392625292131914,0.3333333333333333,0.3333333333333333,0.3333333333333333,0.32487014157611094,0.3552656554675502,0.35718560099993873,0.32487014157611094,0.3508826422322307,0.37120961109373013,1.0469623949020719,0.00260698238785162,1.0346259700974432,0.00260698238785162,0.009294127043609768,0.00505,0.00892,
2017-08-02,0.0,0.03747418117438772,0.009394832841936871,0.3333333333333333,0.3333333333333333,0.3333333333333333,0.32487014157611094,0.3508826422322307,0.37120961109373013,0.32487014157611094,0.3640316819381892,0.3746970633392761,1.0635988868535762,0.003175363968605849,1.0379112841238745,0.003175363968605849,0.015890247856572115,0.00638,0.00926,
2017-08-03,0.0,0.012040197193780687,0.025683753297701232,0.3333333333333333,0.3333333333333333,0.3333333333333333,0.32487014157611094,0.3640316819381892,0.3746970633392761,0.32487014157611094,0.36841469517350867,0.3843206902754552,1.0776055270250748,-0.0017558528428094355,1.0360888646450617,-0.0017558528428094355,0.013169100066411588,0.00719,0.00941,
2017-08-04,0.0,0.0,0.025892775595944828,0.3333333333333333,0.3333333333333333,0.3333333333333333,0.32487014157611094,0.36841469517350867,0.3843206902754552,0.32487014157611094,0.36841469517350867,0.3942718196656362,1.0875566564152557,-0.00490589065846625,1.0310059259626585,-0.00490589065846625,0.00923448250831882,0.00737,0.00947,
2017-08-05,0.0,0.0,0.0,0.3333333333333333,0.3333333333333333,0.3333333333333333,0.32487014157611094,0.36841469517350867,0.3942718196656362,0.32487014157611094,0.36841469517350867,0.3942718196656362,1.0875566564152557,0.0,1.0310059259626585,0.0,0.0,0.00738,0.0081,
2017-08-06,0.0,0.0,0.0,0.3333333333333333,0.3333333333333333,0.3333333333333333,0.32487014157611094,0.36841469517350867,0.3942718196656362,0.32487014157611094,0.36841469517350867,0.3942718196656362,1.0875566564152557,0.0,1.0310059259626585,0.0,0.0,0.00738,0.00741,
2017-08-07,-0.019963285910968298,0.0,0.029379034052971164,0.3333333333333333,0.3333333333333333,0.3333333333333333,0.32487014157611094,0.36841469517350867,0.3942718196656362,0.3183846660558903,0.36841469517350867,0.4058551448817198,1.0926545061111188,-0.001758594567295546,1.029192804542411,-0.001758594567295546,0.004687433676022312,0.0074,0.00741,
2017-08-08,-0.010302036993678263,0.0,0.025032050786981896,0.3333333333333333,0.3333333333333333,0.3333333333333333,0.3183846660558903,0.36841469517350867,0.4058551448817198,0.31510465544796257,0.36841469517350867,0.4160145314805569,1.099533882102028,-0.0007799630797399315,1.028390072152934,-0.0007799630797399315,0.006296021251396056,0.00748,0.00741,
2017-08-09,0.0,0.0,0.0,0.3333333333333333,0.3333333333333333,0.3333333333333333,0.31510465544796257,0.36841469517350867,0.4160145314805569,0.31510465544796257,0.36841469517350867,0.4160145314805569,1.099533882102028,0.0,1.028390072152934,0.0,0.0,0.00699,0.00698,
2017-08-10,-0.025550035486160527,-0.02379391100702577,0.0,0.3333333333333333,0.3333333333333333,0.3333333333333333,0.31510465544796257,0.36841469517350867,0.4160145314805569,0.30705372031941275,0.35964866870286966,0.4160145314805569,1.0827169205028393,0.001555116211785057,1.0299893382261778,0.001555116211785057,-0.015294627908181369,0.00768,0.00752,
2017-08-11,0.0,0.0,0.059682954629928016,0.3333333333333333,0.3333333333333333,0.3333333333333333,0.30705372031941275,0.35964866870286966,0.4160145314805569,0.30705372031941275,0.35964866870286966,0.44084350788830173,1.107545896910584,-0.013095653639219608,1.0165009546006787,-0.013095653639219608,0.0229321034312584,0.009,0.00833,
2017-08-12,0.0,0.0,0.0,0.3333333333333333,0.3333333333333333,0.3333333333333333,0.30705372031941275,0.35964866870286966,0.44084350788830173,0.30705372031941275,0.35964866870286966,0.44084350788830173,1.107545896910584,0.0,1.0165009546006787,0.0,0.0,0.00898,0.00828,
2017-08-13,0.0,0.0,0.0,0.3333333333333333,0.3333333333333333,0.3333333333333333,0.30705372031941275,0.35964866870286966,0.44084350788830173,0.30705372031941275,0.35964866870286966,0.44084350788830173,1.107545896910584,0.0,1.0165009546006787,0.0,0.0,0.00898,0.00819,
2017-08-14,-0.03385757335077555,0.012186930237021444,0.02448601592887578,0.3333333333333333,0.3333333333333333,0.3333333333333333,0.30705372031941275,0.35964866870286966,0.44084350788830173,0.2966576264610697,0.3640316819381892,0.45163800904459617,1.112327317443855,0.008833071115827096,1.0254797798219726,0.008833071115827096,0.004317130826459126,0.00889,0.00818,
2017-08-15,0.0178185745140389,0.012040197193780687,-0.037532542667052304,0.3333333333333333,0.3333333333333333,0.3333333333333333,0.2966576264610697,0.3640316819381892,0.45163800904459617,0.30194364248332417,0.36841469517350867,0.4346868862000673,1.1050452238569002,-0.004158745606267167,1.021215070293322,-0.004158745606267167,-0.006546718284047182,0.00929,0.00834,
2017-08-16,-0.004849875414652205,0.0,0.021263806446765177,0.3333333333333333,0.3333333333333333,0.3333333333333333,0.30194364248332417,0.36841469517350867,0.4346868862000673,0.3004792534350338,0.36841469517350867,0.4439299840131726,1.112823932621715,-0.004849875414652205,1.016262304430834,-0.004849875414652205,0.0070392673502222,0.00922,0.00767,
2017-08-17,-0.0107975460122699,-0.02379391100702577,-0.0034579164214243448,0.3333333333333333,0.3333333333333333,0.3333333333333333,0.3004792534350338,0.36841469517350867,0.4439299840131726,0.2972348148703365,0.35964866870286966,0.4423949112314908,1.099278394804697,-0.003071105079369807,1.0131412561057245,-0.003071105079369807,-0.012172220078971563,0.0095,0.00803,
2017-08-18,0.0,0.0,-0.024400147655961442,0.3333333333333333,0.3333333333333333,0.3333333333333333,0.2972348148703365,0.35964866870286966,0.4423949112314908,0.2972348148703365,0.35964866870286966,0.43160041007519645,1.0884838936484025,-0.0051669073199384075,1.0079064491334202,-0.0051669073199384075,-0.00981962458946739,0.00947,0.00826,
2017-08-19,0.0,0.0,0.0,0.3333333333333333,0.3333333333333333,0.3333333333333333,0.2972348148703365,0.35964866870286966,0.43160041007519645,0.2972348148703365,0.35964866870286966,0.43160041007519645,1.0884838936484025,0.0,1.0079064491334202,0.0,0.0,0.00917,0.00823,
2017-08-20,0.0,0.0,0.0,0.3333333333333333,0.3333333333333333,0.3333333333333333,0.2972348148703365,0.35964866870286966,0.43160041007519645,0.2972348148703365,0.35964866870286966,0.43160041007519645,1.0884838936484025,0.0,1.0079064491334202,0.0,0.0,0.00917,0.00822,0.00894
2017-08-21,-0.010667328206400373,0.024373860474042885,0.010707934465927549,0.3333333333333333,0.3333333333333333,0.3333333333333333,0.2972348148703365,0.35964866870286966,0.43160041007519645,0.29406411354574596,0.36841469517350867,0.4362219589817491,1.0987007677010037,-0.001537520103075396,1.0063567727058582,-0.001537520103075396,0.009386334618471937,0.00948,0.00836,0.009
2017-08-22,0.027331995987963875,-0.008243559718969506,0.017669961066187456,0.3333333333333333,0.3333333333333333,0.3333333333333333,0.29406411354574596,0.36841469517350867,0.4362219589817491,0.30210147271738247,0.3653776466324999,0.44392998401317263,1.111409103363055,0.005174022710264126,1.0115636855024663,0.005174022710264126,0.011566694076898809,0.00984,0.00857,0.00909
2017-08-23,0.0,0.0,0.02431577398469686,0.3333333333333333,0.3333333333333333,0.3333333333333333,0.30210147271738247,0.3653776466324999,0.44392998401317263,0.30210147271738247,0.3653776466324999,0.454724485169467,1.1222036045193493,-0.0011459070589712186,1.01040452753465,-0.0011459070589712186,0.009712446230313088,0.01001,0.00869,0.00911
2017-08-24,0.0,0.0,0.003375830490213616,0.3333333333333333,0.3333333333333333,0.3333333333333333,0.30210147271738247,0.3653776466324999,0.454724485169467,0.30210147271738247,0.3653776466324999,0.4562595579511488,1.1237386773010312,0.0037146669529608545,1.014157843842205,0.0037146669529608545,0.0013679093308021084,0.01,0.0085,0.0091
2017-08-25,0.0,0.024369509776140497,-0.013493682665807638,0.3333333333333333,0.3333333333333333,0.3333333333333333,0.30210147271738247,0.3653776466324999,0.4562595579511488,0.30210147271738247,0.3742817207640938,0.4501029362629143,1.1264861297443907,-0.003847611363747449,1.0102557585976042,-0.003847611363747449,0.002444921135898115,0.00885,0.00814,0.00825
2017-08-26,0.0,0.0,0.0,0.3333333333333333,0.3333333333333333,0.3333333333333333,0.30210147271738247,0.3742817207640938,0.4501029362629143,0.30210147271738247,0.3742817207640938,0.4501029362629143,1.1264861297443907,0.0,1.0102557585976042,0.0,0.0,0.00686,0.00803,0.00787
2017-08-27,0.0,0.0,0.0,0.3333333333333333,0.3333333333333333,0.3333333333333333,0.30210147271738247,0.3742817207640938,0.4501029362629143,0.30210147271738247,0.3742817207640938,0.4501029362629143,1.1264861297443907,0.0,1.0102557585976042,0.0,0.0,0.00686,0.00802,0.00787
2017-08-28,0.0,-0.02378976486860307,0.023946012626079538,0.3333333333333333,0.3333333333333333,0.3333333333333333,0.30210147271738247,0.3742817207640938,0.4501029362629143,0.30210147271738247,0.36537764663249983,0.4608811068577015,1.1283602262075838,0.0024696509048738324,1.0127507376459788,0.0024696509048738324,0.0016636658132829218,0.00686,0.00801,0.00787
2017-08-29,-0.010739565535757832,0.012184754888070248,-0.005594285749260908,0.3333333333333333,0.3333333333333333,0.3333333333333333,0.30210147271738247,0.36537764663249983,0.4608811068577015,0.29885703415268516,0.3698296836982968,0.45830280624950387,1.1269895241004857,-0.005594285749260908,1.0070851206268123,-0.005594285749260908,-0.0012147735051819541,0.00683,0.00803,0.00761
2017-08-30,0.0,0.0,0.004899456505013333,0.3333333333333333,0.3333333333333333,0.3333333333333333,0.29885703415268516,0.3698296836982968,0.45830280624950387,0.29885703415268516,0.3698296836982968,0.46054824091484886,1.1292349587658308,0.004899456505013333,1.0120192903721694,0.004899456505013333,0.0019924184008164314,0.00652,0.00801,0.00751
2017-08-31,0.0,0.024122807017543886,0.0036750519101083072,0.3333333333333333,0.3333333333333333,0.3333333333333333,0.29885703415268516,0.3698296836982968,0.46054824091484886,0.29885703415268516,0.3787510137875101,0.46224077960732,1.1398488275475152,0.0036750519101083072,1.0157385137983181,0.0036750519101083072,0.009399167727931923,0.00669,0.00801,0.0075
2017-09-01,0.0,0.0,0.0,0.3333333333333333,0.3333333333333333,0.3333333333333333,0.29885703415268516,0.3787510137875101,0.46224077960732,0.29885703415268516,0.3787510137875101,0.46224077960732,1.1398488275475152,0.0,1.0157385137983181,0.0,0.0,0.00553,0.00764,0.00748
2017-09-02,0.0,0.0,0.0,0.3333333333333333,0.3333333333333333,0.3333333333333333,0.29885703415268516,0.3787510137875101,0.46224077960732,0.29885703415268516,0.3787510137875101,0.46224077960732,1.1398488275475152,0.0,1.0157385137983181,0.0,0.0,0.00445,0.00737,0.0074
2017-09-03,0.0,0.0,0.0,0.3333333333333333,0.3333333333333333,0.3333333333333333,0.29885703415268516,0.3787510137875101,0.46224077960732,0.29885703415268516,0.3787510137875101,0.46224077960732,1.1398488275475152,0.0,1.0157385137983181,0.0,0.0,0.00445,0.00724,0.0074
2017-09-04,-0.032321736984949445,-0.01180008200829197,-0.04253435214639434,0.3333333333333333,0.3333333333333333,0.3333333333333333,0.29885703415268516,0.3787510137875101,0.46224077960732,0.28919745569870003,0.3742817207640937,0.4425796675110784,1.106058843973872,-0.014124604090002156,1.0013916094319497,-0.014124604090002156,-0.029644267517777045,0.00957,0.00922,0.00865
2017-09-05,0.042044478075181635,0.0,0.02962734621180996,0.3333333333333333,0.3333333333333333,0.3333333333333333,0.28919745569870003,0.3742817207640937,0.4425796675110784,0.30135661178422235,0.3742817207640937,0.45569212854673685,1.131330461095053,0.006279847847550535,1.0076801963749962,0.006279847847550535,0.022848347769983457,0.01093,0.01007,0.00877
2017-09-06,0.0012984735243710688,-0.01189488243430159,-0.01799673996207718,0.3333333333333333,0.3333333333333333,0.3333333333333333,0.30135661178422235,0.3742817207640937,0.45569212854673685,0.30174791536601836,0.3698296836982967,0.4474911558065158,1.119068754870831,-0.0057792978722096535,1.0018565123602183,-0.0057792978722096535,-0.010838306441738998,0.01106,0.01029,0.00891
2017-09-07,0.0,0.024122807017543886,-0.01832655826558249,0.3333333333333333,0.3333333333333333,0.3333333333333333,0.30174791536601836,0.3698296836982967,0.4474911558065158,0.30174791536601836,0.37875101378751,0.4392901830662948,1.1197891122198231,-0.001364281803079348,1.0004896977511089,-0.001364281803079348,0.0006437114304700398,0.01077,0.01024,0.0089
2017-09-08,0.0,-0.023554603854389792,0.0,0.3333333333333333,0.3333333333333333,0.3333333333333333,0.30174791536601836,0.37875101378751,0.4392901830662948,0.30174791536601836,0.3698296836982967,0.4392901830662948,1.1108677821306099,0.00015489179259375874,1.0006446653938652,0.00015489179259375874,-0.00796697341656416,0.01095,0.01036,0.00897
2017-09-09,0.0,0.0,0.0,0.3333333333333333,0.3333333333333333,0.3333333333333333,0.30174791536601836,0.3698296836982967,0.4392901830662948,0.30174791536601836,0.3698296836982967,0.4392901830662948,1.1108677821306099,0.0,1.0006446653938652,0.0,0.0,0.01091,0.00993,0.00897
2017-09-10,0.0,0.0,0.0,0.3333333333333333,0.3333333333333333,0.3333333333333333,0.30174791536601836,0.3698296836982967,0.4392901830662948,0.30174791536601836,0.3698296836982967,0.4392901830662948,1.1108677821306099,0.0,1.0006446653938652,0.0,0.0,0.01091,0.00902,0.00897
2017-09-11,0.0,0.0,0.011560076830049004,0.3333333333333333,0.3333333333333333,0.3333333333333333,0.30174791536601836,0.3698296836982967,0.4392901830662948,0.30174791536601836,0.3698296836982967,0.44436841133322746,1.1159460103975425,-1.5486780484130772e-05,1.0006291686295896,-1.5486780484130772e-05,0.004571406560367253,0.011,0.00905,0.00898
2017-09-12,0.005578093306288111,0.012038073908174685,-0.003797601884735658,0.3333333333333333,0.3333333333333333,0.3333333333333333,0.30174791536601836,0.3698296836982967,0.44436841133322746,0.3034310933929079,0.37428172076409366,0.4426808770168314,1.120393691173833,0.0022239361191385143,1.0028545039795684,0.0022239361191385143,0.0039855698527082595,0.01105,0.00908,0.00899
2017-09-13,-0.02193645990922844,0.0,-0.05652893913683476,0.3333333333333333,0.3333333333333333,0.3333333333333333,0.3034310933929079,0.37428172076409366,0.4426808770168314,0.29677488937748103,0.37428172076409366,0.4176565966629063,1.088713206804481,-0.0016472529815896306,1.0012025489077876,-0.0016472529815896306,-0.028276207389351327,0.01319,0.01044,0.00983
2017-09-14,0.02810002577984028,0.0,-0.01452784503631954,0.3333333333333333,0.3333333333333333,0.3333333333333333,0.29677488937748103,0.37428172076409366,0.4176565966629063,0.3051142714197975,0.37428172076409366,0.411588946348191,1.0909849385320822,-0.0029129880261024037,0.998286057871116,-0.0029129880261024037,0.002086620896488478,0.0132,0.01039,0.00969
2017-09-15,0.0,-0.003536223784908144,0.0,0.3333333333333333,0.3333333333333333,0.3333333333333333,0.3051142714197975,0.37428172076409366,0.411588946348191,0.3051142714197975,0.37295817684087135,0.411588946348191,1.0896613946088598,-0.003536223784908144,0.99475589496913,-0.003536223784908144,-0.001213164248631382,0.01281,0.0103,0.00966
2017-09-16,0.0,0.0,0.0,0.3333333333333333,0.3333333333333333,0.3333333333333333,0.3051142714197975,0.37295817684087135,0.411588946348191,0.3051142714197975,0.37295817684087135,0.411588946348191,1.0896613946088598,0.0,0.99475589496913,0.0,0.0,0.01281,0.01007,0.00965
2017-09-17,0.0,0.0,0.0,0.3333333333333333,0.3333333333333333,0.3333333333333333,0.3051142714197975,0.37295817684087135,0.411588946348191,0.3051142714197975,0.37295817684087135,0.411588946348191,1.0896613946088598,0.0,0.99475589496913,0.0,0.0,0.01281,0.0099,0.00965
2017-09-18,-0.005516549648946989,0.022203098106712504,0.007371007371007154,0.3333333333333333,0.3333333333333333,0.3333333333333333,0.3051142714197975,0.37295817684087135,0.411588946348191,0.3034310933929079,0.38123900383096987,0.41462277150554855,1.0992928687294263,0.01006056904996333,1.004763705338325,0.01006056904996333,0.008838960587406852,0.01315,0.01003,0.00972
2017-09-19,0.0,0.021720828422293392,-0.02198509485094857,0.3333333333333333,0.3333333333333333,0.3333333333333333,0.3034310933929079,0.38123900383096987,0.41462277150554855,0.3034310933929079,0.3895198308210684,0.4055072505466359,1.0984581747606121,-0.004904606937396916,0.999835734298678,-0.004904606937396916,-0.0007593008128752299,0.01076,0.01003,0.00972
2017-09-20,0.0,0.010670731707317138,0.011256970662602672,0.3333333333333333,0.3333333333333333,0.3333333333333333,0.3034310933929079,0.3895198308210684,0.4055072505466359,0.3034310933929079,0.39367629243043956,0.41007203376951207,1.1071794195928595,-0.0024426913002369988,0.9973934442488406,-0.0024426913002369988,0.007939532913165293,0.00901,0.00999,0.0097
2017-09-21,-0.016389309127584406,0.010517304634951595,-0.0185299356076174,0.3333333333333333,0.3333333333333333,0.3333333333333333,0.3034310933929079,0.39367629243043956,0.41007203376951207,0.2984580674043706,0.3978167059254888,0.4024734253892783,1.0987481987191376,-0.0013206673565211435,0.9960762192854129,-0.0013206673565211435,-0.007615044792669834,0.0088,0.00986,0.00954
2017-09-22,0.0,0.0,-0.015110800907345956,0.3333333333333333,0.3333333333333333,0.3333333333333333,0.2984580674043706,0.3978167059254888,0.4024734253892783,0.2984580674043706,0.3978167059254888,0.3963917295877234,1.0926665029175826,0.0020007343286181367,0.9980691031712574,0.0020007343286181367,-0.005535113330465302,0.00886,0.00972,0.0094
2017-09-23,0.0,0.0,0.0,0.3333333333333333,0.3333333333333333,0.3333333333333333,0.2984580674043706,0.3978167059254888,0.3963917295877234,0.2984580674043706,0.3978167059254888,0.3963917295877234,1.0926665029175826,0.0,0.9980691031712574,0.0,0.0,0.00868,0.00971,0.00931
2017-09-24,0.0,0.0,0.0,0.3333333333333333,0.3333333333333333,0.3333333333333333,0.2984580674043706,0.3978167059254888,0.3963917295877234,0.2984580674043706,0.3978167059254888,0.3963917295877234,1.0926665029175826,0.0,0.9980691031712574,0.0,0.0,0.00868,0.00969,0.00931
2017-09-25,0.005383235067931258,-0.0013477214501980141,-0.015307207143363531,0.3333333333333333,0.3333333333333333,0.3333333333333333,0.2984580674043706,0.3978167059254888,0.3963917295877234,0.3000647373391288,0.3972805598176659,0.390324079273008,1.0876693764298027,-0.0013477214501980141,0.9967239840321336,-0.0013477214501980141,-0.004573331821225324,0.00872,0.00971,0.00934
2017-09-26,0.0,0.01962943275875162,-0.0012033918859669646,0.3333333333333333,0.3333333333333333,0.3333333333333333,0.3000647373391288,0.3972805598176659,0.390324079273008,0.3000647373391288,0.405078951852966,0.38985436644311333,1.0949980556352081,-0.0012033918859669646,0.9955245344772007,-0.0012033918859669646,0.00673796593360132,0.00885,0.00981,0.00936
2017-09-27,0.0,0.007506133173933226,0.0,0.3333333333333333,0.3333333333333333,0.3333333333333333,0.3000647373391288,0.405078951852966,0.38985436644311333,0.3000647373391288,0.40811952841153165,0.38985436644311333,1.0980386321937738,0.007506133173933226,1.0029970742109044,0.007506133173933226,0.0027767871759387663,0.0088,0.00983,0.00933
2017-09-28,0.027791942886282502,0.019785276073619462,0.0075096478114244905,0.3333333333333333,0.3333333333333333,0.3333333333333333,0.3000647373391288,0.40811952841153165,0.38985436644311333,0.30840411938144524,0.4161942859521892,0.3927820354328471,1.1173804407664816,-0.0027841725507161685,1.0002045572884377,-0.0027841725507161685,0.017614870739169453,0.00641,0.01039,0.00966
2017-09-29,-0.0022403738294588527,0.0,0.007488181096656055,0.3333333333333333,0.3333333333333333,0.3333333333333333,0.30840411938144524,0.4161942859521892,0.3927820354328471,0.30771317886348576,0.4161942859521892,0.39572325844568146,1.1196307232613565,-0.0022403738294588527,0.9979637251741832,-0.0022403738294588527,0.0020138910730631565,0.00641,0.01039,0.00939
2017-09-30,0.0,0.0,0.0,0.3333333333333333,0.3333333333333333,0.3333333333333333,0.30771317886348576,0.4161942859521892,0.39572325844568146,0.30771317886348576,0.4161942859521892,0.39572325844568146,1.1196307232613565,0.0,0.9979637251741832,0.0,0.0,0.00637,0.01023,0.00882
2017-10-01,0.0,0.0,0.0,0.3333333333333333,0.3333333333333333,0.3333333333333333,0.30771317886348576,0.4161942859521892,0.39572325844568146,0.30771317886348576,0.4161942859521892,0.39572325844568146,1.1196307232613565,0.0,0.9979637251741832,0.0,0.0,0.00637,0.01023,0.00882
2017-10-02,0.034951974386339346,0.0097383065122576,0.03139367003546223,0.3333333333333333,0.3333333333333333,0.3333333333333333,0.30771317886348576,0.4161942859521892,0.39572325844568146,0.3184683620094614,0.4202473134774418,0.4081464638466831,1.1468621393335863,0.013102850700795976,1.0110398948699506,0.013102850700795976,0.024321783518862272,0.00858,0.01119,0.00946
2017-10-03,0.010630920626114815,0.01921429901321892,0.02135922330097073,0.3333333333333333,0.3333333333333333,0.3333333333333333,0.3184683620094614,0.4202473134774418,0.4081464638466831,0.32185397388791276,0.4283220710180993,0.416864155307486,1.167040200213498,-0.0049109469360227856,1.0060747315960423,-0.0049109469360227856,0.01759414683584959,0.00925,0.01163,0.00974
2017-10-04,0.0,0.009426034854408185,0.015350982175626804,0.3333333333333333,0.3333333333333333,0.3333333333333333,0.32185397388791276,0.4283220710180993,0.416864155307486,0.32185397388791276,0.4323594497884282,0.42326342952526896,1.1774768532016098,-0.002905042389589885,1.0031520418536606,-0.002905042389589885,0.008942839317962248,0.00923,0.01018,0.00974
2017-10-05,0.0,-0.009338014405154138,-0.01954995933367476,0.3333333333333333,0.3333333333333333,0.3333333333333333,0.32185397388791276,0.4323594497884282,0.42326342952526896,0.32185397388791276,0.4283220710180994,0.41498864669061825,1.1651646915966305,0.00778273832512011,1.0109593116957176,0.00778273832512011,-0.010456393746936077,0.00996,0.00965,0.00985
2017-10-06,-0.02915766738660908,-0.028314639582039388,0.03984883863831866,0.3333333333333333,0.3333333333333333,0.3333333333333333,0.32185397388791276,0.4283220710180994,0.41498864669061825,0.31246946277023063,0.4161942859521892,0.4315254623093269,1.1601892110317469,0.009028646408162144,1.0200869058540571,0.009028646408162144,-0.004270195106981567,0.00973,0.00944,0.00969
2017-10-07,0.0,0.0,0.0,0.3333333333333333,0.3333333333333333,0.3333333333333333,0.31246946277023063,0.4161942859521892,0.4315254623093269,0.31246946277023063,0.4161942859521892,0.4315254623093269,1.1601892110317469,0.0,1.0200869058540571,0.0,0.0,0.00945,0.00945,0.00957
2017-10-08,0.0,0.0,0.0,0.3333333333333333,0.3333333333333333,0.3333333333333333,0.31246946277023063,0.4161942859521892,0.4315254623093269,0.31246946277023063,0.4161942859521892,0.4315254623093269,1.1601892110317469,0.0,1.0200869058540571,0.0,0.0,0.00945,0.00929,0.00957
2017-10-09,0.0,0.0097383065122576,0.012793617964248716,0.3333333333333333,0.3333333333333333,0.3333333333333333,0.31246946277023063,0.4161942859521892,0.4315254623093269,0.31246946277023063,0.4202473134774418,0.4370462342159583,1.1697630104636307,8.203470371803691e-05,1.0201705883811456,8.203470371803691e-05,0.008251929375700628,0.00944,0.00937,0.00961
2017-10-10,0.0,0.009607149506609458,0.03783768014469935,0.3333333333333333,0.3333333333333333,0.3333333333333333,0.31246946277023063,0.4202473134774418,0.4370462342159583,0.31246946277023063,0.4242846922477706,0.4535830498346671,1.1903372048526684,-0.0007929370875816577,1.0193616572859583,-0.0007929370875816577,0.017588344138940615,0.00964,0.00979,0.00982
2017-10-11,-0.012235817575083408,-0.01906834359901155,0.0030639494026702967,0.3333333333333333,0.3333333333333333,0.3333333333333333,0.31246946277023063,0.4242846922477706,0.4535830498346671,0.3086461434259898,0.4161942859521892,0.45497280534926937,1.1798132347274484,-0.002636099667066905,1.016674518360566,-0.002636099667066905,-0.008841167093086466,0.01037,0.00999,0.00982
2017-10-12,0.0,-0.009700706873214004,0.01210626611366461,0.3333333333333333,0.3333333333333333,0.3333333333333333,0.3086461434259898,0.4161942859521892,0.45497280534926937,0.3086461434259898,0.41215690718186043,0.46048082720530814,1.1812838778131582,0.006953674686307254,1.0237441422231035,0.006953674686307254,0.0012465049911476456,0.0104,0.00998,0.00975
2017-10-13,-0.01829954954954971,0.03922089756245728,0.014979510466275325,0.3333333333333333,0.3333333333333333,0.3333333333333333,0.3086461434259898,0.41215690718186043,0.46048082720530814,0.3029980580310885,0.4283220710180994,0.46737860457594915,1.198698733625137,0.004850004087082027,1.0287093054970118,0.004850004087082027,0.01474231227485956,0.01018,0.00849,0.00994
2017-10-14,0.0,0.0,0.0,0.3333333333333333,0.3333333333333333,0.3333333333333333,0.3029980580310885,0.4283220710180994,0.46737860457594915,0.3029980580310885,0.4283220710180994,0.46737860457594915,1.198698733625137,0.0,1.0287093054970118,0.0,0.0,0.01023,0.00851,0.00994
2017-10-15,0.0,0.0,0.0,0.3333333333333333,0.3333333333333333,0.3333333333333333,0.3029980580310885,0.4283220710180994,0.46737860457594915,0.3029980580310885,0.4283220710180994,0.46737860457594915,1.198698733625137,0.0,1.0287093054970118,0.0,0.0,0.01023,0.00849,0.00994
2017-10-16,0.0,0.02831463958203928,-0.014758436315028378,0.3333333333333333,0.3333333333333333,0.3333333333333333,0.3029980580310885,0.4283220710180994,0.46737860457594915,0.3029980580310885,0.4404498560840095,0.4604808272053082,1.2039287413204063,0.0011900780630951235,1.0299335498747857,0.0011900780630951235,0.004363071010722308,0.01015,0.00847,0.00995
2017-10-17,0.0,0.009166489021530827,0.005980728762875032,0.3333333333333333,0.3333333333333333,0.3333333333333333,0.3029980580310885,0.4404498560840095,0.4604808272053082,0.3029980580310885,0.4444872348543384,0.4632348381333275,1.2107201310187543,0.0017965369268084785,1.0317838635292946,0.0017965369268084785,0.005641022981891508,0.00863,0.00846,0.00996
2017-10-18,0.0,0.0,0.0,0.3333333333333333,0.3333333333333333,0.3333333333333333,0.3029980580310885,0.4444872348543384,0.4632348381333275,0.3029980580310885,0.4444872348543384,0.4632348381333275,1.2107201310187543,0.0,1.0317838635292946,0.0,0.0,0.00775,0.00842,0.00996
2017-10-19,0.0017662802678255485,-0.03636811716659638,-0.02975338544533745,0.3333333333333333,0.3333333333333333,0.3333333333333333,0.3029980580310885,0.4444872348543384,0.4632348381333275,0.30353323752217826,0.4283220710180994,0.4494520334426381,1.1813073419829159,0.0017662802678255485,1.0336062830081072,0.0017662802678255485,-0.024293631766979185,0.01015,0.00979,0.0106
2017-10-20,0.0,0.02831463958203928,0.0030637428725426297,0.3333333333333333,0.3333333333333333,0.3333333333333333,0.30353323752217826,0.4283220710180994,0.4494520334426381,0.30353323752217826,0.4404498560840095,0.45082903890664777,1.1948121325128356,0.0017451745324461587,1.0354101063697894,0.0017451745324461587,0.011432071951106959,0.01007,0.00988,0.01064
2017-10-21,0.0,0.0,0.0,0.3333333333333333,0.3333333333333333,0.3333333333333333,0.30353323752217826,0.4404498560840095,0.45082903890664777,0.30353323752217826,0.4404498560840095,0.45082903890664777,1.1948121325128356,0.0,1.0354101063697894,0.0,0.0,0.00995,0.0097,0.01064
2017-10-22,0.0,0.0,0.0,0.3333333333333333,0.3333333333333333,0.3333333333333333,0.30353323752217826,0.4404498560840095,0.45082903890664777,0.30353323752217826,0.4404498560840095,0.45082903890664777,1.1948121325128356,0.0,1.0354101063697894,0.0,0.0,0.00995,0.00959,0.01064
2017-10-23,0.039817629179331286,0.0,0.002714975469433334,0.3333333333333333,0.3333333333333333,0.3333333333333333,0.30353323752217826,0.4404498560840095,0.45082903890664777,0.31561921141743826,0.4404498560840095,0.45205302868818753,1.2081220961896353,0.002714975469433334,1.0382212194093867,0.002714975469433334,0.011139796219517217,0.0102,0.00969,0.01074
2017-10-24,-0.0045166875634367045,0.009166489021530827,-0.014459827871919571,0.3333333333333333,0.3333333333333333,0.3333333333333333,0.31561921141743826,0.4404498560840095,0.45205302868818753,0.3141936580504474,0.4444872348543384,0.44551641970437644,1.2041973126091623,-0.0045166875634367045,1.0335318985395843,-0.0045166875634367045,-0.003248664677892754,0.01019,0.00974,0.00979
2017-10-25,0.002761892481115025,0.0,0.002928972418843045,0.3333333333333333,0.3333333333333333,0.3333333333333333,0.3141936580504474,0.4444872348543384,0.44551641970437644,0.31506142715223096,0.4444872348543384,0.44682132500983224,1.2063699870164015,0.002761892481115025,1.0363864025191534,0.002761892481115025,0.001804251167552895,0.00923,0.00963,0.00931
2017-10-26,-0.03125896185833088,0.0,-0.011681674373326793,0.3333333333333333,0.3333333333333333,0.3333333333333333,0.31506142715223096,0.4444872348543384,0.44682132500983224,0.30521293401784805,0.4444872348543384,0.44160170378800895,1.1913018726601954,0.0036992954292618396,1.0402203020009415,0.0036992954292618396,-0.012490458581013497,0.00955,0.01004,0.00936
2017-10-27,0.0,-0.009083227714406616,0.002954937207584329,0.3333333333333333,0.3333333333333333,0.3333333333333333,0.30521293401784805,0.4444872348543384,0.44160170378800895,0.30521293401784805,0.4404498560840095,0.44290660909346474,1.1885693991953223,0.008995158286778437,1.0495772482705605,0.008995158286778437,-0.002293686871129852,0.00958,0.01009,0.00937
2017-10-28,0.0,0.0,0.0,0.3333333333333333,0.3333333333333333,0.3333333333333333,0.30521293401784805,0.4404498560840095,0.44290660909346474,0.30521293401784805,0.4404498560840095,0.44290660909346474,1.1885693991953223,0.0,1.0495772482705605,0.0,0.0,0.00873,0.00969,0.00928
2017-10-29,0.0,0.0,0.0,0.3333333333333333,0.3333333333333333,0.3333333333333333,0.30521293401784805,0.4404498560840095,0.44290660909346474,0.30521293401784805,0.4404498560840095,0.44290660909346474,1.1885693991953223,0.0,1.0495772482705605,0.0,0.0,0.00873,0.0097,0.00928
2017-10-30,0.0,0.0,0.053086722863300295,0.3333333333333333,0.3333333333333333,0.3333333333333333,0.30521293401784805,0.4404498560840095,0.44290660909346474,0.30521293401784805,0.4404498560840095,0.4664190695047336,1.2120818596065912,-0.0030917423607093038,1.0463322258312457,-0.0030917423607093038,0.01978215191068111,0.01019,0.01022,0.00963
2017-10-31,-0.013025458851391279,0.009166489021530827,0.04761287982799267,0.3333333333333333,0.3333333333333333,0.3333333333333333,0.30521293401784805,0.4404498560840095,0.4664190695047336,0.30123739550488615,0.4444872348543384,0.4886266246105466,1.2343512549697713,-0.0005598390980962042,1.0457464481416274,-0.0005598390980962042,0.018372847664272607,0.01114,0.01059,0.00991
2017-11-01,0.03929214157168559,0.009083227714406394,-0.02138918424371317,0.3333333333333333,0.3333333333333333,0.3333333333333333,0.30123739550488615,0.4444872348543384,0.4886266246105466,0.31307365789575,0.44852461362466717,0.478175299710368,1.2397735712307851,0.0051954903262518845,1.0511796136966596,0.0051954903262518845,0.004392847043483306,0.01111,0.00983,0.00991
2017-11-02,0.0,-0.009001465354825156,0.016398827572265958,0.3333333333333333,0.3333333333333333,0.3333333333333333,0.31307365789575,0.44852461362466717,0.478175299710368,0.31307365789575,0.4444872348543384,0.4860168139996349,1.2435777067497233,-0.003275730405323807,1.047736232674617,-0.003275730405323807,0.003068411528696746,0.01111,0.00941,0.00889
2017-11-03,0.03637381085618352,0.018166455428812792,0.029583592293349836,0.3333333333333333,0.3333333333333333,0.3333333333333333,0.31307365789575,0.4444872348543384,0.4860168139996349,0.3244613399121035,0.45256199239499595,0.500394937272713,1.2774182695798124,0.0005354237538826023,1.0482972155413943,0.0005354237538826023,0.027212262367211748,0.01039,0.01041,0.00954
2017-11-04,0.0,0.0,0.0,0.3333333333333333,0.3333333333333333,0.3333333333333333,0.3244613399121035,0.45256199239499595,0.500394937272713,0.3244613399121035,0.45256199239499595,0.500394937272713,1.2774182695798124,0.0,1.0482972155413943,0.0,0.0,0.01032,0.01012,0.00953
2017-11-05,0.0,0.0,0.0,0.3333333333333333,0.3333333333333333,0.3333333333333333,0.3244613399121035,0.45256199239499595,0.500394937272713,0.3244613399121035,0.45256199239499595,0.500394937272713,1.2774182695798124,0.0,1.0482972155413943,0.0,0.0,0.01032,0.01004,0.00953
2017-11-06,-0.03509719222462193,0.0,0.0,0.3333333333333333,0.3333333333333333,0.3333333333333333,0.3244613399121035,0.45256199239499595,0.500394937272713,0.31307365789575003,0.45256199239499595,0.500394937272713,1.266030587563459,-0.00013600172663064122,1.0481546453100585,-0.00013600172663064122,-0.008914607131851326,0.01084,0.01027,0.00967
2017-11-07,0.0486849468382764,0.017876901798063782,-0.015991513584073913,0.3333333333333333,0.3333333333333333,0.3333333333333333,0.31307365789575003,0.45256199239499595,0.500394937272713,0.32831563228686933,0.4606523986905774,0.4923928648359146,1.2813608958133613,0.00924050445761937,1.0578401229823207,0.00924050445761937,0.012108955660705023,0.01089,0.01039,0.00972
2017-11-08,-0.011739594450373423,0.00876448007609465,-0.015549006923979982,0.3333333333333333,0.3333333333333333,0.3333333333333333,0.32831563228686933,0.4606523986905774,0.4923928648359146,0.3244613399121036,0.4646897774609062,0.4847366447712626,1.2738877621442724,0.0023878585450176626,1.0603660955592464,0.0023878585450176626,-0.005832184900839588,0.01103,0.01048,0.00979
2017-11-09,0.011879049676025929,0.0,0.028960817717206263,0.3333333333333333,0.3333333333333333,0.3333333333333333,0.3244613399121036,0.4646897774609062,0.4847366447712626,0.3283156322868694,0.4646897774609062,0.4987750143813333,1.2917804241291089,0.0007774936061379911,1.0611905234187093,0.0007774936061379911,0.014045713065583332,0.01132,0.01032,0.00989
2017-11-10,0.011739594450373758,-0.008688331368917224,-0.020458845789971702,0.3333333333333333,0.3333333333333333,0.3333333333333333,0.3283156322868694,0.4646897774609062,0.4987750143813333,0.33216992466163525,0.4606523986905774,0.4885706532782147,1.2813929766304275,-0.0011127628938845113,1.0600096699809072,-0.0011127628938845113,-0.00804118664802056,0.01089,0.01029,0.0099
2017-11-11,0.0,0.0,0.0,0.3333333333333333,0.3333333333333333,0.3333333333333333,0.33216992466163525,0.4606523986905774,0.4885706532782147,0.33216992466163525,0.4606523986905774,0.4885706532782147,1.2813929766304275,0.0,1.0600096699809072,0.0,0.0,0.0108,0.0103,0.00983
2017-11-12,0.0,0.0,0.0,0.3333333333333333,0.3333333333333333,0.3333333333333333,0.33216992466163525,0.4606523986905774,0.4885706532782147,0.33216992466163525,0.4606523986905774,0.4885706532782147,1.2813929766304275,0.0,1.0600096699809072,0.0,0.0,0.0108,0.01006,0.00983
2017-11-13,0.0,0.0,-0.00784739828564529,0.3333333333333333,0.3333333333333333,0.3333333333333333,0.33216992466163525,0.4606523986905774,0.4885706532782147,0.33216992466163525,0.4606523986905774,0.48473664477126266,1.2775589681234754,-0.0002836174380865808,1.0597090327539602,-0.0002836174380865808,-0.002992062994628064,0.01093,0.0101,0.00986
2017-11-14,0.0,0.0,-0.026308104161596457,0.3333333333333333,0.3333333333333333,0.3333333333333333,0.33216992466163525,0.4606523986905774,0.48473664477126266,0.33216992466163525,0.4606523986905774,0.4719841426296775,1.2648064659818903,-0.005861140114590491,1.0534979296322922,-0.005861140114590491,-0.009981928396085249,0.01073,0.01034,0.00998
2017-11-15,-0.011603375527426294,-0.02632741108129221,0.04324027093903871,0.3333333333333333,0.3333333333333333,0.3333333333333333,0.33216992466163525,0.4606523986905774,0.4719841426296775,0.3283156322868694,0.4485246136246672,0.49239286483591466,1.2692331107474513,-0.00894062822696673,1.0440789963055708,-0.00894062822696673,0.0034998593734454353,0.00985,0.01033,0.00996
2017-11-16,0.017342582710779153,-0.009001465354825156,-0.015549006923979982,0.3333333333333333,0.3333333333333333,0.3333333333333333,0.3283156322868694,0.4485246136246672,0.49239286483591466,0.33400947329504616,0.44448723485433844,0.48473664477126266,1.2632333529206472,-0.008133701427850415,1.0355867694825316,-0.008133701427850415,-0.004727073203495968,0.00996,0.01037,0.01002
2017-11-17,0.017309205350117818,0.009083227714406394,0.03158919445120478,0.3333333333333333,0.3333333333333333,0.3333333333333333,0.33400947329504616,0.44448723485433844,0.48473664477126266,0.3397909118571948,0.4485246136246672,0.5000490849005667,1.2883646103824287,0.012294615868075232,1.0483189110113802,0.012294615868075232,0.01989439037821228,0.01106,0.0109,0.0101
2017-11-18,0.0,0.0,0.0,0.3333333333333333,0.3333333333333333,0.3333333333333333,0.3397909118571948,0.4485246136246672,0.5000490849005667,0.3397909118571948,0.4485246136246672,0.5000490849005667,1.2883646103824287,0.0,1.0483189110113802,0.0,0.0,0.00868,0.0097,0.01011
2017-11-19,0.0,0.0,0.0,0.3333333333333333,0.3333333333333333,0.3333333333333333,0.3397909118571948,0.4485246136246672,0.5000490849005667,0.3397909118571948,0.4485246136246672,0.5000490849005667,1.2883646103824287,0.0,1.0483189110113802,0.0,0.0,0.00868,0.00958,0.01011
2017-11-20,-0.0056715648362979385,-0.027004396064475692,0.010191563650089552,0.3333333333333333,0.3333333333333333,0.3333333333333333,0.3397909118571948,0.4485246136246672,0.5000490849005667,0.3378637656698119,0.43641247731368077,0.5051453669774998,1.2794216099609925,0.0012446856946883855,1.0496237385633873,0.0012446856946883855,-0.006941358330838976,0.0089,0.00973,0.01019
2017-11-21,0.01685247601763029,0.018502581755593942,-0.01020551144325088,0.3333333333333333,0.3333333333333333,0.3333333333333333,0.3378637656698119,0.43641247731368077,0.5051453669774998,0.3435576066779887,0.44448723485433844,0.4999901001543057,1.2880349416866328,0.010863434900593159,1.061026257717388,0.010863434900593159,0.006732207474518859,0.00868,0.00975,0.00972
2017-11-22,0.011218765935747,0.018166455428812792,0.005167166080739971,0.3333333333333333,0.3333333333333333,0.3333333333333333,0.3435576066779887,0.44448723485433844,0.4999901001543057,0.3474118990527545,0.452561992394996,0.5025736320405289,1.3025475234882795,0.0019396035497081245,1.06308422801319,0.0019396035497081245,0.011267226790170115,0.0086,0.00975,0.00956
2017-11-23,0.021936459909228656,0.0,-0.015398338106192178,0.3333333333333333,0.3333333333333333,0.3333333333333333,0.3474118990527545,0.452561992394996,0.5025736320405289,0.35503288624831425,0.452561992394996,0.4948348333311118,1.3024297119744221,-0.001997072903364927,1.0609611713074303,-0.001997072903364927,-9.044699846483262e-05,0.0084,0.00971,0.00952
2017-11-24,0.03774981495188756,0.0,0.0,0.3333333333333333,0.3333333333333333,0.3333333333333333,0.35503288624831425,0.452561992394996,0.4948348333311118,0.36843531200602264,0.452561992394996,0.4948348333311118,1.3158321377321305,0.005544568338703647,1.0668437430264555,0.005544568338703647,0.010290325561900016,0.00805,0.0098,0.00941
2017-11-25,0.0,0.0,0.0,0.3333333333333333,0.3333333333333333,0.3333333333333333,0.36843531200602264,0.452561992394996,0.4948348333311118,0.36843531200602264,0.452561992394996,0.4948348333311118,1.3158321377321305,0.0,1.0668437430264555,0.0,0.0,0.00764,0.00938,0.00937
2017-11-26,0.0,0.0,0.0,0.3333333333333333,0.3333333333333333,0.3333333333333333,0.36843531200602264,0.452561992394996,0.4948348333311118,0.36843531200602264,0.452561992394996,0.4948348333311118,1.3158321377321305,0.0,1.0668437430264555,0.0,0.0,0.00764,0.00934,0.00937
2017-11-27,-0.0016820882297401418,-0.00892116182572611,-0.015615314928717816,0.3333333333333333,0.3333333333333333,0.3333333333333333,0.36843531200602264,0.452561992394996,0.4948348333311118,0.36781557130427667,0.4485246136246672,0.4871078315709469,1.3034480164998907,-0.0016820882297401418,1.0650492177233388,-0.0016820882297401418,-0.009411626967543163,0.00817,0.00962,0.00952
2017-11-28,0.0,-0.009001465354825156,-0.010583420115763742,0.3333333333333333,0.3333333333333333,0.3333333333333333,0.36781557130427667,0.4485246136246672,0.4871078315709469,0.36781557130427667,0.44448723485433844,0.4819525647477529,1.294255370906368,0.001743123537696789,1.0669057300835578,0.001743123537696789,-0.007052560192010948,0.00838,0.00978,0.00957
2017-11-29,-0.023819930069929995,0.0,-0.005336074802956836,0.3333333333333333,0.3333333333333333,0.3333333333333333,0.36781557130427667,0.44448723485433844,0.4819525647477529,0.35905423011717746,0.44448723485433844,0.479380829810782,1.2829222947822978,-0.0009760773889929686,1.0658643475242362,-0.0009760773889929686,-0.00875644511804008,0.00827,0.00946,0.00942
2017-11-30,-0.02440116409223203,0.0,-0.059159366079338575,0.3333333333333333,0.3333333333333333,0.3333333333333333,0.35905423011717746,0.44448723485433844,0.479380829810782,0.35029288893007815,0.44448723485433844,0.45102096380858886,1.2458010875930055,-0.001584767620725791,1.0641752002181937,-0.001584767620725791,-0.0289348835391402,0.01126,0.01051,0.01026
2017-12-01,0.0,0.0,0.005728185812931663,0.3333333333333333,0.3333333333333333,0.3333333333333333,0.35029288893007815,0.44448723485433844,0.45102096380858886,0.35029288893007815,0.44448723485433844,0.453604495694812,1.2483846194792285,0.004659913675099103,1.0691341647863917,0.004659913675099103,0.002073791644551015,0.01125,0.01049,0.01027
2017-12-02,0.0,0.0,0.0,0.3333333333333333,0.3333333333333333,0.3333333333333333,0.35029288893007815,0.44448723485433844,0.453604495694812,0.35029288893007815,0.44448723485433844,0.453604495694812,1.2483846194792285,0.0,1.0691341647863917,0.0,0.0,0.00971,0.01048,0.01008
2017-12-03,0.0,0.0,0.0,0.3333333333333333,0.3333333333333333,0.3333333333333333,0.35029288893007815,0.44448723485433844,0.453604495694812,0.35029288893007815,0.44448723485433844,0.453604495694812,1.2483846194792285,0.0,1.0691341647863917,0.0,0.0,0.00971,0.00915,0.01008
2017-12-04,0.02501147315282237,-0.0181664554288129,-0.028425788666094576,0.3333333333333333,0.3333333333333333,0.3333333333333333,0.35029288893007815,0.44448723485433844,0.453604495694812,0.3590542301171774,0.4364124773136808,0.44071043016220085,1.236177137593059,-0.003209123535311997,1.0657031811757696,-0.003209123535311997,-0.009778622465936748,0.00989,0.0093,0.01019
2017-12-05,0.0,-0.027789730349971342,-0.05846137373521065,0.3333333333333333,0.3333333333333333,0.3333333333333333,0.3590542301171774,0.4364124773136808,0.44071043016220085,0.3590542301171774,0.42428469224777066,0.41494589299548296,1.198284815360431,-0.00011923908017219541,1.0655761077087096,-0.00011923908017219541,-0.03065282561883287,0.01223,0.01075,0.01109
2017-12-06,-0.0021349864374602396,-0.009515730461402194,0.0061977597088758146,0.3333333333333333,0.3333333333333333,0.3333333333333333,0.3590542301171774,0.42428469224777066,0.41494589299548296,0.3582876542055645,0.4202473134774419,0.41751762793245384,1.1960525956154604,-0.011881700726572464,1.0529152512955287,-0.011881700726572464,-0.0018628457244526109,0.01187,0.01067,0.01106
2017-12-07,0.0,0.0,-0.006159584086799286,0.3333333333333333,0.3333333333333333,0.3333333333333333,0.3582876542055645,0.4202473134774419,0.41751762793245384,0.3582876542055645,0.4202473134774419,0.4149458929954829,1.1934808606784895,-0.002669837896391525,1.0501041382559313,-0.002669837896391525,-0.0021501854905030537,0.01105,0.01034,0.01107
2017-12-08,0.0,0.0,0.0,0.3333333333333333,0.3333333333333333,0.3333333333333333,0.3582876542055645,0.4202473134774419,0.4149458929954829,0.3582876542055645,0.4202473134774419,0.4149458929954829,1.1934808606784895,0.010772872431481506,1.0614167761771334,0.010772872431481506,0.0,0.01105,0.01033,0.01051
2017-12-09,0.0,0.0,0.0,0.3333333333333333,0.3333333333333333,0.3333333333333333,0.3582876542055645,0.4202473134774419,0.4149458929954829,0.3582876542055645,0.4202473134774419,0.4149458929954829,1.1934808606784895,0.0,1.0614167761771334,0.0,0.0,0.01028,0.00988,0.01038
2017-12-10,0.0,0.0,0.0,0.3333333333333333,0.3333333333333333,0.3333333333333333,0.3582876542055645,0.4202473134774419,0.4149458929954829,0.3582876542055645,0.4202473134774419,0.4149458929954829,1.1934808606784895,0.0,1.0614167761771334,0.0,0.0,0.01028,0.00983,0.01038
2017-12-11,0.0,0.0,0.03548020150587705,0.3333333333333333,0.3333333333333333,0.3333333333333333,0.3582876542055645,0.4202473134774419,0.4149458929954829,0.3582876542055645,0.4202473134774419,0.42966825689299876,1.2082032245760053,0.0104565735376565,1.0725155587513318,0.0104565735376565,0.012335651439895123,0.01127,0.01018,0.01053
2017-12-12,0.03901070882202951,-0.03636811716659638,-0.0057020297133291145,0.3333333333333333,0.3333333333333333,0.3333333333333333,0.3582876542055645,0.4202473134774419,0.42966825689299876,0.3722647095583058,0.4049637099419469,0.42721827572532056,1.2044466952255735,0.0014709069629672555,1.07409312935459,0.0014709069629672555,-0.003109186661664487,0.01124,0.01018,0.01042
2017-12-13,0.0,0.01888860472763154,-0.01725680012626929,0.3333333333333333,0.3333333333333333,0.3333333333333333,0.3722647095583058,0.4049637099419469,0.42721827572532056,0.3722647095583058,0.4126129093880756,0.4198458553308393,1.2047234742772206,0.0009320336801768023,1.0750942203267948,0.0009320336801768023,0.0002297976761813647,0.01131,0.01019,0.01041
2017-12-14,0.0,-0.00951057579487824,0.005862198190481394,0.3333333333333333,0.3333333333333333,0.3333333333333333,0.3722647095583058,0.4126129093880756,0.4198458553308393,0.3722647095583058,0.4086887230393951,0.42230707494424086,1.2032605075419418,-0.00951057579487824,1.0648694552577413,-0.00951057579487824,-0.001214358951672656,0.01129,0.01007,0.01041
2017-12-15,0.0,-0.01800293070965053,0.0058014210820449535,0.3333333333333333,0.3333333333333333,0.3333333333333333,0.3722647095583058,0.4086887230393951,0.42230707494424086,0.3722647095583058,0.4013311282767013,0.4247570561119191,1.1983528939469263,-0.00548347100221791,1.059030274478688,-0.00548347100221791,-0.004078596084767128,0.00899,0.01003,0.01027
2017-12-16,0.0,0.0,0.0,0.3333333333333333,0.3333333333333333,0.3333333333333333,0.3722647095583058,0.4013311282767013,0.4247570561119191,0.3722647095583058,0.4013311282767013,0.4247570561119191,1.1983528939469263,0.0,1.059030274478688,0.0,0.0,0.00892,0.01003,0.01026
2017-12-17,0.0,0.0,0.0,0.3333333333333333,0.3333333333333333,0.3333333333333333,0.3722647095583058,0.4013311282767013,0.4247570561119191,0.3722647095583058,0.4013311282767013,0.4247570561119191,1.1983528939469263,0.0,1.059030274478688,0.0,0.0,0.00892,0.00917,0.01026
2017-12-18,0.005398773006134894,0.02749946706459183,0.04048154517793368,0.3333333333333333,0.3333333333333333,0.3333333333333333,0.3722647095583058,0.4013311282767013,0.4247570561119191,0.37427448222340587,0.41236752042074193,0.44195187806855984,1.2285938807127077,-0.0006204381698243777,1.0583732116734017,-0.0006204381698243777,0.025235460204196425,0.01148,0.01046,0.01086
2017-12-19,-0.005369782767878918,-0.00892116182572611,-0.016681500317863973,0.3333333333333333,0.3333333333333333,0.3333333333333333,0.37427448222340587,0.41236752042074193,0.44195187806855984,0.3722647095583058,0.4086887230393951,0.4345794576740786,1.2155328902717795,-0.00303090646066273,1.0551653814683484,-0.00303090646066273,-0.010630844452319432,0.01153,0.01059,0.01062
2017-12-20,-0.0107975460122699,0.0,-0.011301042178489262,0.3333333333333333,0.3333333333333333,0.3333333333333333,0.3722647095583058,0.4086887230393951,0.4345794576740786,0.3682451642281057,0.4086887230393951,0.4296682568929988,1.2066021441604997,-0.0028198221749640147,1.0521900027274296,-0.0028198221749640147,-0.007347185899085784,0.0084,0.01059,0.01033
2017-12-21,0.0,0.0,-0.003634896181591518,0.3333333333333333,0.3333333333333333,0.3333333333333333,0.3682451642281057,0.4086887230393951,0.4296682568929988,0.3682451642281057,0.4086887230393951,0.42810645738666736,1.2050403446541682,-0.003634896181591518,1.048365401304207,-0.003634896181591518,-0.0012943781957375222,0.00839,0.01047,0.01031
2017-12-22,0.0,0.0,0.0,0.3333333333333333,0.3333333333333333,0.3333333333333333,0.3682451642281057,0.4086887230393951,0.42810645738666736,0.3682451642281057,0.4086887230393951,0.42810645738666736,1.2050403446541682,0.0009401246995590641,1.0493509955121363,0.0009401246995590641,0.0,0.00836,0.01017,0.0103
2017-12-23,0.0,0.0,0.0,0.3333333333333333,0.3333333333333333,0.3333333333333333,0.3682451642281057,0.4086887230393951,0.42810645738666736,0.3682451642281057,0.4086887230393951,0.42810645738666736,1.2050403446541682,0.0,1.0493509955121363,0.0,0.0,0.00836,0.01017,0.00949
2017-12-24,0.0,0.0,0.0,0.3333333333333333,0.3333333333333333,0.3333333333333333,0.3682451642281057,0.4086887230393951,0.42810645738666736,0.3682451642281057,0.4086887230393951,0.42810645738666736,1.2050403446541682,0.0,1.0493509955121363,0.0,0.0,0.00836,0.00989,0.00949
2017-12-25,0.0,0.0,0.0,0.3333333333333333,0.3333333333333333,0.3333333333333333,0.3682451642281057,0.4086887230393951,0.42810645738666736,0.3682451642281057,0.4086887230393951,0.42810645738666736,1.2050403446541682,0.0,1.0493509955121363,0.0,0.0,0.00836,0.00989,0.00949
2017-12-26,0.0,0.0,0.021741834373989462,0.3333333333333333,0.3333333333333333,0.3333333333333333,0.3682451642281057,0.4086887230393951,0.42810645738666736,0.3682451642281057,0.4086887230393951,0.43741427707760366,1.2143481643451044,-0.0022299606286422247,1.0470109841065176,-0.0022299606286422247,0.00772407308371692,0.00798,0.01007,0.0095
2017-12-27,0.003999218509484592,0.009001465354825156,-0.010639592919923113,0.3333333333333333,0.3333333333333333,0.3333333333333333,0.3682451642281057,0.4086887230393951,0.43741427707760366,0.36971785710491495,0.41236752042074193,0.4327603672321355,1.2148457447577923,0.003999218509484592,1.05119820981379,0.003999218509484592,0.00040975103129192725,0.00792,0.01,0.00932
2017-12-28,0.023265741728921933,0.008955739972337673,0.0,0.3333333333333333,0.3333333333333333,0.3333333333333333,0.36971785710491495,0.41236752042074193,0.4327603672321355,0.37831961728088837,0.41606057670666774,0.4327603672321355,1.2271405612196915,0.0021906612376794143,1.053501028985147,0.0021906612376794143,0.010120475389532313,0.00829,0.01021,0.00942
2017-12-29,0.0,-0.008876246615716843,0.005364701250123004,0.3333333333333333,0.3333333333333333,0.3333333333333333,0.37831961728088837,0.41606057670666774,0.4327603672321355,0.37831961728088837,0.412367520420742,0.43508199731522945,1.2257691350168598,0.0011238268953546182,1.0546849817758042,0.0011238268953546182,-0.0011175787405059978,0.00829,0.01012,0.00918
2017-12-30,0.0,0.0,0.0,0.3333333333333333,0.3333333333333333,0.3333333333333333,0.37831961728088837,0.412367520420742,0.43508199731522945,0.37831961728088837,0.412367520420742,0.43508199731522945,1.2257691350168598,0.0,1.0546849817758042,0.0,0.0,0.00817,0.00869,0.00912
2017-12-31,0.0,0.0,0.0,0.3333333333333333,0.3333333333333333,0.3333333333333333,0.37831961728088837,0.412367520420742,0.43508199731522945,0.37831961728088837,0.412367520420742,0.43508199731522945,1.2257691350168598,0.0,1.0546849817758042,0.0,0.0,0.00817,0.00868,0.00912
